{
  "project_info": {
    "project_number": "777189002964",
    "firebase_url": "https://nakelasi.firebaseio.com",
    "project_id": "nakelasi",
    "storage_bucket": "nakelasi.appspot.com"
  },
  "client": [
    {
      "client_info": {
        "mobilesdk_app_id": "1:777189002964:android:f9e5f33893f81edb",
        "android_client_info": {
          "package_name": "com.eww.nakelasi"
        }
      },
      "oauth_client": [
        {
          "client_id": "777189002964-4l5b8b6e5skn9thhr4eo8n891jvqjq91.apps.googleusercontent.com",
          "client_type": 3
        }
      ],
      "api_key": [
        {
          "current_key": "AIzaSyCuK0-_qh8AInlPvHPSwmCb1k0YXcuHyec"
        }
      ],
      "services": {
        "analytics_service": {
          "status": 1
        },
        "appinvite_service": {
          "status": 1,
          "other_platform_oauth_client": []
        },
        "ads_service": {
          "status": 2
        }
      }
    }
  ],
  "configuration_version": "1"
}